INFO  19:41:21,009 - Compiling source file: C:\Users\Rpsaman13000\Desktop\PP1\compiler\workspace\MJCompiler\test\program.mj
INFO  19:41:21,108 - #14 program
INFO  19:41:21,108 - #49 test301
INFO  19:41:21,108 - #19 const
INFO  19:41:21,110 - #49 int
INFO  19:41:21,110 - #49 nula
INFO  19:41:21,112 - #2 =
INFO  19:41:21,113 - #48 0
INFO  19:41:21,113 - #38 ;
INFO  19:41:21,113 - #19 const
INFO  19:41:21,113 - #49 int
INFO  19:41:21,113 - #49 jedan
INFO  19:41:21,113 - #2 =
INFO  19:41:21,113 - #48 1
INFO  19:41:21,114 - #38 ;
INFO  19:41:21,114 - #19 const
INFO  19:41:21,114 - #49 int
INFO  19:41:21,114 - #49 pet
INFO  19:41:21,114 - #2 =
INFO  19:41:21,114 - #48 5
INFO  19:41:21,114 - #38 ;
INFO  19:41:21,114 - #49 int
INFO  19:41:21,115 - #49 niz
INFO  19:41:21,115 - #46 [
INFO  19:41:21,116 - #47 ]
INFO  19:41:21,116 - #38 ;
INFO  19:41:21,116 - #49 char
INFO  19:41:21,116 - #49 nizch
INFO  19:41:21,116 - #46 [
INFO  19:41:21,117 - #47 ]
INFO  19:41:21,117 - #38 ;
INFO  19:41:21,117 - #42 {
INFO  19:41:21,117 - #28 void
INFO  19:41:21,117 - #49 main
INFO  19:41:21,118 - #40 (
INFO  19:41:21,119 - #41 )
INFO  19:41:21,120 - #49 int
INFO  19:41:21,120 - #49 bodovi
INFO  19:41:21,120 - #38 ;
INFO  19:41:21,120 - #49 bool
INFO  19:41:21,120 - #49 bt
INFO  19:41:21,120 - #38 ;
INFO  19:41:21,120 - #42 {
INFO  19:41:21,120 - #49 bodovi
INFO  19:41:21,122 - #2 =
INFO  19:41:21,124 - #48 0
INFO  19:41:21,124 - #38 ;
INFO  19:41:21,124 - #49 bodovi
INFO  19:41:21,124 - #36 ++
INFO  19:41:21,125 - #38 ;
INFO  19:41:21,125 - #49 bodovi
INFO  19:41:21,125 - #2 =
INFO  19:41:21,125 - #49 bodovi
INFO  19:41:21,125 - #3 +
INFO  19:41:21,125 - #49 jedan
INFO  19:41:21,126 - #38 ;
INFO  19:41:21,126 - #49 bodovi
INFO  19:41:21,127 - #2 =
INFO  19:41:21,127 - #49 bodovi
INFO  19:41:21,127 - #5 *
INFO  19:41:21,127 - #49 pet
INFO  19:41:21,129 - #38 ;
INFO  19:41:21,129 - #49 bodovi
INFO  19:41:21,129 - #37 --
INFO  19:41:21,129 - #38 ;
INFO  19:41:21,129 - #25 print
INFO  19:41:21,129 - #40 (
INFO  19:41:21,129 - #49 bodovi
INFO  19:41:21,130 - #41 )
INFO  19:41:21,130 - #38 ;
INFO  19:41:21,130 - #49 niz
INFO  19:41:21,130 - #2 =
INFO  19:41:21,130 - #23 new
INFO  19:41:21,130 - #49 int
INFO  19:41:21,130 - #46 [
INFO  19:41:21,132 - #48 3
INFO  19:41:21,132 - #47 ]
INFO  19:41:21,132 - #38 ;
INFO  19:41:21,132 - #49 niz
INFO  19:41:21,132 - #46 [
INFO  19:41:21,132 - #49 nula
INFO  19:41:21,132 - #47 ]
INFO  19:41:21,133 - #2 =
INFO  19:41:21,133 - #49 jedan
INFO  19:41:21,133 - #38 ;
INFO  19:41:21,133 - #49 niz
INFO  19:41:21,133 - #46 [
INFO  19:41:21,133 - #48 1
INFO  19:41:21,133 - #47 ]
INFO  19:41:21,133 - #2 =
INFO  19:41:21,133 - #48 2
INFO  19:41:21,133 - #38 ;
INFO  19:41:21,134 - #49 niz
INFO  19:41:21,134 - #46 [
INFO  19:41:21,134 - #49 niz
INFO  19:41:21,134 - #46 [
INFO  19:41:21,134 - #49 jedan
INFO  19:41:21,134 - #47 ]
INFO  19:41:21,134 - #47 ]
INFO  19:41:21,134 - #2 =
INFO  19:41:21,134 - #49 niz
INFO  19:41:21,134 - #46 [
INFO  19:41:21,134 - #49 niz
INFO  19:41:21,134 - #46 [
INFO  19:41:21,135 - #48 0
INFO  19:41:21,135 - #47 ]
INFO  19:41:21,135 - #47 ]
INFO  19:41:21,135 - #5 *
INFO  19:41:21,135 - #48 3
INFO  19:41:21,135 - #38 ;
INFO  19:41:21,135 - #49 bodovi
INFO  19:41:21,135 - #2 =
INFO  19:41:21,135 - #49 niz
INFO  19:41:21,135 - #46 [
INFO  19:41:21,135 - #48 2
INFO  19:41:21,135 - #47 ]
INFO  19:41:21,135 - #6 /
INFO  19:41:21,136 - #49 niz
INFO  19:41:21,136 - #46 [
INFO  19:41:21,137 - #48 0
INFO  19:41:21,137 - #47 ]
INFO  19:41:21,137 - #38 ;
INFO  19:41:21,137 - #25 print
INFO  19:41:21,137 - #40 (
INFO  19:41:21,137 - #49 bodovi
INFO  19:41:21,137 - #41 )
INFO  19:41:21,137 - #38 ;
INFO  19:41:21,137 - #25 print
INFO  19:41:21,137 - #40 (
INFO  19:41:21,137 - #49 niz
INFO  19:41:21,137 - #46 [
INFO  19:41:21,137 - #48 2
INFO  19:41:21,138 - #47 ]
INFO  19:41:21,138 - #41 )
INFO  19:41:21,138 - #38 ;
INFO  19:41:21,138 - #49 nizch
INFO  19:41:21,138 - #2 =
INFO  19:41:21,138 - #23 new
INFO  19:41:21,138 - #49 char
INFO  19:41:21,138 - #46 [
INFO  19:41:21,138 - #48 3
INFO  19:41:21,138 - #47 ]
INFO  19:41:21,138 - #38 ;
INFO  19:41:21,138 - #49 nizch
INFO  19:41:21,139 - #46 [
INFO  19:41:21,139 - #48 0
INFO  19:41:21,139 - #47 ]
INFO  19:41:21,139 - #2 =
INFO  19:41:21,139 - #50 a
INFO  19:41:21,139 - #38 ;
INFO  19:41:21,139 - #49 nizch
INFO  19:41:21,139 - #46 [
INFO  19:41:21,139 - #49 jedan
INFO  19:41:21,139 - #47 ]
INFO  19:41:21,140 - #2 =
INFO  19:41:21,140 - #50 b
INFO  19:41:21,140 - #38 ;
INFO  19:41:21,140 - #49 nizch
INFO  19:41:21,140 - #46 [
INFO  19:41:21,140 - #49 pet
INFO  19:41:21,140 - #4 -
INFO  19:41:21,140 - #48 3
INFO  19:41:21,141 - #47 ]
INFO  19:41:21,141 - #2 =
INFO  19:41:21,141 - #50 c
INFO  19:41:21,143 - #38 ;
INFO  19:41:21,143 - #25 print
INFO  19:41:21,143 - #40 (
INFO  19:41:21,143 - #49 nizch
INFO  19:41:21,143 - #46 [
INFO  19:41:21,143 - #48 1
INFO  19:41:21,143 - #47 ]
INFO  19:41:21,143 - #41 )
INFO  19:41:21,143 - #38 ;
INFO  19:41:21,144 - #25 print
INFO  19:41:21,144 - #40 (
INFO  19:41:21,144 - #49 nizch
INFO  19:41:21,144 - #46 [
INFO  19:41:21,144 - #49 jedan
INFO  19:41:21,144 - #5 *
INFO  19:41:21,144 - #48 2
INFO  19:41:21,144 - #47 ]
INFO  19:41:21,144 - #41 )
INFO  19:41:21,144 - #38 ;
INFO  19:41:21,144 - #49 bodovi
INFO  19:41:21,144 - #2 =
INFO  19:41:21,145 - #49 bodovi
INFO  19:41:21,145 - #3 +
INFO  19:41:21,145 - #40 (
INFO  19:41:21,145 - #49 pet
INFO  19:41:21,145 - #5 *
INFO  19:41:21,145 - #49 jedan
INFO  19:41:21,145 - #4 -
INFO  19:41:21,145 - #48 1
INFO  19:41:21,145 - #41 )
INFO  19:41:21,145 - #5 *
INFO  19:41:21,145 - #49 bodovi
INFO  19:41:21,145 - #4 -
INFO  19:41:21,145 - #40 (
INFO  19:41:21,145 - #48 3
INFO  19:41:21,145 - #7 %
INFO  19:41:21,146 - #48 2
INFO  19:41:21,147 - #3 +
INFO  19:41:21,147 - #48 3
INFO  19:41:21,147 - #5 *
INFO  19:41:21,147 - #48 2
INFO  19:41:21,147 - #4 -
INFO  19:41:21,147 - #48 3
INFO  19:41:21,147 - #41 )
INFO  19:41:21,147 - #38 ;
INFO  19:41:21,147 - #25 print
INFO  19:41:21,147 - #40 (
INFO  19:41:21,147 - #49 bodovi
INFO  19:41:21,147 - #41 )
INFO  19:41:21,148 - #38 ;
INFO  19:41:21,148 - #49 bodovi
INFO  19:41:21,148 - #2 =
INFO  19:41:21,148 - #48 13
INFO  19:41:21,148 - #38 ;
INFO  19:41:21,148 - #25 print
INFO  19:41:21,148 - #40 (
INFO  19:41:21,148 - #49 bodovi
INFO  19:41:21,148 - #41 )
INFO  19:41:21,148 - #38 ;
INFO  19:41:21,148 - #43 }
INFO  19:41:21,148 - #43 }
INFO  19:41:21,153 - =================SINTAKSNO STABLO=================
INFO  19:41:21,159 - Program(
  ProgramName(
   test301
  ) [ProgramName]
  Declarations(
    Declarations(
      Declarations(
        Declarations(
          Declarations(
            NoDeclaration(
            ) [NoDeclaration]
            PossConstDeclaration(
              ConstantDeclaration(
                Type(
                 int
                ) [Type]
                SingleConst(
                 nula
                  ConstNum(
                   0
                  ) [ConstNum]
                ) [SingleConst]
              ) [ConstantDeclaration]
            ) [PossConstDeclaration]
          ) [Declarations]
          PossConstDeclaration(
            ConstantDeclaration(
              Type(
               int
              ) [Type]
              SingleConst(
               jedan
                ConstNum(
                 1
                ) [ConstNum]
              ) [SingleConst]
            ) [ConstantDeclaration]
          ) [PossConstDeclaration]
        ) [Declarations]
        PossConstDeclaration(
          ConstantDeclaration(
            Type(
             int
            ) [Type]
            SingleConst(
             pet
              ConstNum(
               5
              ) [ConstNum]
            ) [SingleConst]
          ) [ConstantDeclaration]
        ) [PossConstDeclaration]
      ) [Declarations]
      PossVarDeclaration(
        VarDeclarationSingle(
          Type(
           int
          ) [Type]
         niz
          Array(
            NoArrDecl(
            ) [NoArrDecl]
          ) [Array]
        ) [VarDeclarationSingle]
      ) [PossVarDeclaration]
    ) [Declarations]
    PossVarDeclaration(
      VarDeclarationSingle(
        Type(
         char
        ) [Type]
       nizch
        Array(
          NoArrDecl(
          ) [NoArrDecl]
        ) [Array]
      ) [VarDeclarationSingle]
    ) [PossVarDeclaration]
  ) [Declarations]
  ProgramMethodDeclarations(
    SingleMethodDecl(
      MethodDeclaration(
        MethodTypeName(
          VoidClass(
          ) [VoidClass]
         main
        ) [MethodTypeName]
        NoFormPars(
        ) [NoFormPars]
        MethodDeclVars(
          VarDeclarations(
            SingleVarDeclaration(
              VarDeclarationSingle(
                Type(
                 int
                ) [Type]
               bodovi
                NoArrDecl(
                ) [NoArrDecl]
              ) [VarDeclarationSingle]
            ) [SingleVarDeclaration]
            VarDeclarationSingle(
              Type(
               bool
              ) [Type]
             bt
              NoArrDecl(
              ) [NoArrDecl]
            ) [VarDeclarationSingle]
          ) [VarDeclarations]
          MethodDefinitionStart(
          ) [MethodDefinitionStart]
          MethodDefinition(
            StatementListClass(
              StatementListClass(
                StatementListClass(
                  StatementListClass(
                    StatementListClass(
                      StatementListClass(
                        StatementListClass(
                          StatementListClass(
                            StatementListClass(
                              StatementListClass(
                                StatementListClass(
                                  StatementListClass(
                                    StatementListClass(
                                      StatementListClass(
                                        StatementListClass(
                                          StatementListClass(
                                            StatementListClass(
                                              StatementListClass(
                                                StatementListClass(
                                                  StatementListClass(
                                                    StatementListClass(
                                                      StatementListClass(
                                                        SingleStmt(
                                                          MatchedClass(
                                                            DesignatorStment(
                                                              Assign(
                                                                SimpleDesignatorClass(
                                                                  SimpleDesignator(
                                                                    DesName(
                                                                     bodovi
                                                                    ) [DesName]
                                                                    NoArrayRef(
                                                                    ) [NoArrayRef]
                                                                  ) [SimpleDesignator]
                                                                ) [SimpleDesignatorClass]
                                                                Assignop(
                                                                ) [Assignop]
                                                                AssignExprClass(
                                                                  ExpressionNoAddList(
                                                                    TermExpression(
                                                                      TermNoMulopList(
                                                                        ConstNumFactor(
                                                                         0
                                                                        ) [ConstNumFactor]
                                                                      ) [TermNoMulopList]
                                                                    ) [TermExpression]
                                                                  ) [ExpressionNoAddList]
                                                                ) [AssignExprClass]
                                                              ) [Assign]
                                                            ) [DesignatorStment]
                                                          ) [MatchedClass]
                                                        ) [SingleStmt]
                                                        MatchedClass(
                                                          DesignatorStment(
                                                            PlusPlus(
                                                              SimpleDesignatorClass(
                                                                SimpleDesignator(
                                                                  DesName(
                                                                   bodovi
                                                                  ) [DesName]
                                                                  NoArrayRef(
                                                                  ) [NoArrayRef]
                                                                ) [SimpleDesignator]
                                                              ) [SimpleDesignatorClass]
                                                            ) [PlusPlus]
                                                          ) [DesignatorStment]
                                                        ) [MatchedClass]
                                                      ) [StatementListClass]
                                                      MatchedClass(
                                                        DesignatorStment(
                                                          Assign(
                                                            SimpleDesignatorClass(
                                                              SimpleDesignator(
                                                                DesName(
                                                                 bodovi
                                                                ) [DesName]
                                                                NoArrayRef(
                                                                ) [NoArrayRef]
                                                              ) [SimpleDesignator]
                                                            ) [SimpleDesignatorClass]
                                                            Assignop(
                                                            ) [Assignop]
                                                            AssignExprClass(
                                                              ExpressionAddList(
                                                                TermExpression(
                                                                  TermNoMulopList(
                                                                    DesignatorFactorNoParams(
                                                                      SimpleDesignatorClass(
                                                                        SimpleDesignator(
                                                                          DesName(
                                                                           bodovi
                                                                          ) [DesName]
                                                                          NoArrayRef(
                                                                          ) [NoArrayRef]
                                                                        ) [SimpleDesignator]
                                                                      ) [SimpleDesignatorClass]
                                                                    ) [DesignatorFactorNoParams]
                                                                  ) [TermNoMulopList]
                                                                ) [TermExpression]
                                                                SingleAddExpressionList(
                                                                  Addop(
                                                                  ) [Addop]
                                                                  TermNoMulopList(
                                                                    DesignatorFactorNoParams(
                                                                      SimpleDesignatorClass(
                                                                        SimpleDesignator(
                                                                          DesName(
                                                                           jedan
                                                                          ) [DesName]
                                                                          NoArrayRef(
                                                                          ) [NoArrayRef]
                                                                        ) [SimpleDesignator]
                                                                      ) [SimpleDesignatorClass]
                                                                    ) [DesignatorFactorNoParams]
                                                                  ) [TermNoMulopList]
                                                                ) [SingleAddExpressionList]
                                                              ) [ExpressionAddList]
                                                            ) [AssignExprClass]
                                                          ) [Assign]
                                                        ) [DesignatorStment]
                                                      ) [MatchedClass]
                                                    ) [StatementListClass]
                                                    MatchedClass(
                                                      DesignatorStment(
                                                        Assign(
                                                          SimpleDesignatorClass(
                                                            SimpleDesignator(
                                                              DesName(
                                                               bodovi
                                                              ) [DesName]
                                                              NoArrayRef(
                                                              ) [NoArrayRef]
                                                            ) [SimpleDesignator]
                                                          ) [SimpleDesignatorClass]
                                                          Assignop(
                                                          ) [Assignop]
                                                          AssignExprClass(
                                                            ExpressionNoAddList(
                                                              TermExpression(
                                                                TermMulopList(
                                                                  DesignatorFactorNoParams(
                                                                    SimpleDesignatorClass(
                                                                      SimpleDesignator(
                                                                        DesName(
                                                                         bodovi
                                                                        ) [DesName]
                                                                        NoArrayRef(
                                                                        ) [NoArrayRef]
                                                                      ) [SimpleDesignator]
                                                                    ) [SimpleDesignatorClass]
                                                                  ) [DesignatorFactorNoParams]
                                                                  MulopFactorSingle(
                                                                    Mulop(
                                                                    ) [Mulop]
                                                                    DesignatorFactorNoParams(
                                                                      SimpleDesignatorClass(
                                                                        SimpleDesignator(
                                                                          DesName(
                                                                           pet
                                                                          ) [DesName]
                                                                          NoArrayRef(
                                                                          ) [NoArrayRef]
                                                                        ) [SimpleDesignator]
                                                                      ) [SimpleDesignatorClass]
                                                                    ) [DesignatorFactorNoParams]
                                                                  ) [MulopFactorSingle]
                                                                ) [TermMulopList]
                                                              ) [TermExpression]
                                                            ) [ExpressionNoAddList]
                                                          ) [AssignExprClass]
                                                        ) [Assign]
                                                      ) [DesignatorStment]
                                                    ) [MatchedClass]
                                                  ) [StatementListClass]
                                                  MatchedClass(
                                                    DesignatorStment(
                                                      MinusMinus(
                                                        SimpleDesignatorClass(
                                                          SimpleDesignator(
                                                            DesName(
                                                             bodovi
                                                            ) [DesName]
                                                            NoArrayRef(
                                                            ) [NoArrayRef]
                                                          ) [SimpleDesignator]
                                                        ) [SimpleDesignatorClass]
                                                      ) [MinusMinus]
                                                    ) [DesignatorStment]
                                                  ) [MatchedClass]
                                                ) [StatementListClass]
                                                MatchedClass(
                                                  PrintNoConst(
                                                    ExpressionNoAddList(
                                                      TermExpression(
                                                        TermNoMulopList(
                                                          DesignatorFactorNoParams(
                                                            SimpleDesignatorClass(
                                                              SimpleDesignator(
                                                                DesName(
                                                                 bodovi
                                                                ) [DesName]
                                                                NoArrayRef(
                                                                ) [NoArrayRef]
                                                              ) [SimpleDesignator]
                                                            ) [SimpleDesignatorClass]
                                                          ) [DesignatorFactorNoParams]
                                                        ) [TermNoMulopList]
                                                      ) [TermExpression]
                                                    ) [ExpressionNoAddList]
                                                  ) [PrintNoConst]
                                                ) [MatchedClass]
                                              ) [StatementListClass]
                                              MatchedClass(
                                                DesignatorStment(
                                                  Assign(
                                                    SimpleDesignatorClass(
                                                      SimpleDesignator(
                                                        DesName(
                                                         niz
                                                        ) [DesName]
                                                        NoArrayRef(
                                                        ) [NoArrayRef]
                                                      ) [SimpleDesignator]
                                                    ) [SimpleDesignatorClass]
                                                    Assignop(
                                                    ) [Assignop]
                                                    AssignExprClass(
                                                      ExpressionNoAddList(
                                                        TermExpression(
                                                          TermNoMulopList(
                                                            AllocationExpr(
                                                              Type(
                                                               int
                                                              ) [Type]
                                                              ArrayRefListAlloc(
                                                                NoArrayRefAlloc(
                                                                ) [NoArrayRefAlloc]
                                                                ExpressionNoAddList(
                                                                  TermExpression(
                                                                    TermNoMulopList(
                                                                      ConstNumFactor(
                                                                       3
                                                                      ) [ConstNumFactor]
                                                                    ) [TermNoMulopList]
                                                                  ) [TermExpression]
                                                                ) [ExpressionNoAddList]
                                                              ) [ArrayRefListAlloc]
                                                            ) [AllocationExpr]
                                                          ) [TermNoMulopList]
                                                        ) [TermExpression]
                                                      ) [ExpressionNoAddList]
                                                    ) [AssignExprClass]
                                                  ) [Assign]
                                                ) [DesignatorStment]
                                              ) [MatchedClass]
                                            ) [StatementListClass]
                                            MatchedClass(
                                              DesignatorStment(
                                                Assign(
                                                  SimpleDesignatorClass(
                                                    SimpleDesignator(
                                                      DesName(
                                                       niz
                                                      ) [DesName]
                                                      ArrayRefList(
                                                        NoArrayRef(
                                                        ) [NoArrayRef]
                                                        ExpressionNoAddList(
                                                          TermExpression(
                                                            TermNoMulopList(
                                                              DesignatorFactorNoParams(
                                                                SimpleDesignatorClass(
                                                                  SimpleDesignator(
                                                                    DesName(
                                                                     nula
                                                                    ) [DesName]
                                                                    NoArrayRef(
                                                                    ) [NoArrayRef]
                                                                  ) [SimpleDesignator]
                                                                ) [SimpleDesignatorClass]
                                                              ) [DesignatorFactorNoParams]
                                                            ) [TermNoMulopList]
                                                          ) [TermExpression]
                                                        ) [ExpressionNoAddList]
                                                      ) [ArrayRefList]
                                                    ) [SimpleDesignator]
                                                  ) [SimpleDesignatorClass]
                                                  Assignop(
                                                  ) [Assignop]
                                                  AssignExprClass(
                                                    ExpressionNoAddList(
                                                      TermExpression(
                                                        TermNoMulopList(
                                                          DesignatorFactorNoParams(
                                                            SimpleDesignatorClass(
                                                              SimpleDesignator(
                                                                DesName(
                                                                 jedan
                                                                ) [DesName]
                                                                NoArrayRef(
                                                                ) [NoArrayRef]
                                                              ) [SimpleDesignator]
                                                            ) [SimpleDesignatorClass]
                                                          ) [DesignatorFactorNoParams]
                                                        ) [TermNoMulopList]
                                                      ) [TermExpression]
                                                    ) [ExpressionNoAddList]
                                                  ) [AssignExprClass]
                                                ) [Assign]
                                              ) [DesignatorStment]
                                            ) [MatchedClass]
                                          ) [StatementListClass]
                                          MatchedClass(
                                            DesignatorStment(
                                              Assign(
                                                SimpleDesignatorClass(
                                                  SimpleDesignator(
                                                    DesName(
                                                     niz
                                                    ) [DesName]
                                                    ArrayRefList(
                                                      NoArrayRef(
                                                      ) [NoArrayRef]
                                                      ExpressionNoAddList(
                                                        TermExpression(
                                                          TermNoMulopList(
                                                            ConstNumFactor(
                                                             1
                                                            ) [ConstNumFactor]
                                                          ) [TermNoMulopList]
                                                        ) [TermExpression]
                                                      ) [ExpressionNoAddList]
                                                    ) [ArrayRefList]
                                                  ) [SimpleDesignator]
                                                ) [SimpleDesignatorClass]
                                                Assignop(
                                                ) [Assignop]
                                                AssignExprClass(
                                                  ExpressionNoAddList(
                                                    TermExpression(
                                                      TermNoMulopList(
                                                        ConstNumFactor(
                                                         2
                                                        ) [ConstNumFactor]
                                                      ) [TermNoMulopList]
                                                    ) [TermExpression]
                                                  ) [ExpressionNoAddList]
                                                ) [AssignExprClass]
                                              ) [Assign]
                                            ) [DesignatorStment]
                                          ) [MatchedClass]
                                        ) [StatementListClass]
                                        MatchedClass(
                                          DesignatorStment(
                                            Assign(
                                              SimpleDesignatorClass(
                                                SimpleDesignator(
                                                  DesName(
                                                   niz
                                                  ) [DesName]
                                                  ArrayRefList(
                                                    NoArrayRef(
                                                    ) [NoArrayRef]
                                                    ExpressionNoAddList(
                                                      TermExpression(
                                                        TermNoMulopList(
                                                          DesignatorFactorNoParams(
                                                            SimpleDesignatorClass(
                                                              SimpleDesignator(
                                                                DesName(
                                                                 niz
                                                                ) [DesName]
                                                                ArrayRefList(
                                                                  NoArrayRef(
                                                                  ) [NoArrayRef]
                                                                  ExpressionNoAddList(
                                                                    TermExpression(
                                                                      TermNoMulopList(
                                                                        DesignatorFactorNoParams(
                                                                          SimpleDesignatorClass(
                                                                            SimpleDesignator(
                                                                              DesName(
                                                                               jedan
                                                                              ) [DesName]
                                                                              NoArrayRef(
                                                                              ) [NoArrayRef]
                                                                            ) [SimpleDesignator]
                                                                          ) [SimpleDesignatorClass]
                                                                        ) [DesignatorFactorNoParams]
                                                                      ) [TermNoMulopList]
                                                                    ) [TermExpression]
                                                                  ) [ExpressionNoAddList]
                                                                ) [ArrayRefList]
                                                              ) [SimpleDesignator]
                                                            ) [SimpleDesignatorClass]
                                                          ) [DesignatorFactorNoParams]
                                                        ) [TermNoMulopList]
                                                      ) [TermExpression]
                                                    ) [ExpressionNoAddList]
                                                  ) [ArrayRefList]
                                                ) [SimpleDesignator]
                                              ) [SimpleDesignatorClass]
                                              Assignop(
                                              ) [Assignop]
                                              AssignExprClass(
                                                ExpressionNoAddList(
                                                  TermExpression(
                                                    TermMulopList(
                                                      DesignatorFactorNoParams(
                                                        SimpleDesignatorClass(
                                                          SimpleDesignator(
                                                            DesName(
                                                             niz
                                                            ) [DesName]
                                                            ArrayRefList(
                                                              NoArrayRef(
                                                              ) [NoArrayRef]
                                                              ExpressionNoAddList(
                                                                TermExpression(
                                                                  TermNoMulopList(
                                                                    DesignatorFactorNoParams(
                                                                      SimpleDesignatorClass(
                                                                        SimpleDesignator(
                                                                          DesName(
                                                                           niz
                                                                          ) [DesName]
                                                                          ArrayRefList(
                                                                            NoArrayRef(
                                                                            ) [NoArrayRef]
                                                                            ExpressionNoAddList(
                                                                              TermExpression(
                                                                                TermNoMulopList(
                                                                                  ConstNumFactor(
                                                                                   0
                                                                                  ) [ConstNumFactor]
                                                                                ) [TermNoMulopList]
                                                                              ) [TermExpression]
                                                                            ) [ExpressionNoAddList]
                                                                          ) [ArrayRefList]
                                                                        ) [SimpleDesignator]
                                                                      ) [SimpleDesignatorClass]
                                                                    ) [DesignatorFactorNoParams]
                                                                  ) [TermNoMulopList]
                                                                ) [TermExpression]
                                                              ) [ExpressionNoAddList]
                                                            ) [ArrayRefList]
                                                          ) [SimpleDesignator]
                                                        ) [SimpleDesignatorClass]
                                                      ) [DesignatorFactorNoParams]
                                                      MulopFactorSingle(
                                                        Mulop(
                                                        ) [Mulop]
                                                        ConstNumFactor(
                                                         3
                                                        ) [ConstNumFactor]
                                                      ) [MulopFactorSingle]
                                                    ) [TermMulopList]
                                                  ) [TermExpression]
                                                ) [ExpressionNoAddList]
                                              ) [AssignExprClass]
                                            ) [Assign]
                                          ) [DesignatorStment]
                                        ) [MatchedClass]
                                      ) [StatementListClass]
                                      MatchedClass(
                                        DesignatorStment(
                                          Assign(
                                            SimpleDesignatorClass(
                                              SimpleDesignator(
                                                DesName(
                                                 bodovi
                                                ) [DesName]
                                                NoArrayRef(
                                                ) [NoArrayRef]
                                              ) [SimpleDesignator]
                                            ) [SimpleDesignatorClass]
                                            Assignop(
                                            ) [Assignop]
                                            AssignExprClass(
                                              ExpressionNoAddList(
                                                TermExpression(
                                                  TermMulopList(
                                                    DesignatorFactorNoParams(
                                                      SimpleDesignatorClass(
                                                        SimpleDesignator(
                                                          DesName(
                                                           niz
                                                          ) [DesName]
                                                          ArrayRefList(
                                                            NoArrayRef(
                                                            ) [NoArrayRef]
                                                            ExpressionNoAddList(
                                                              TermExpression(
                                                                TermNoMulopList(
                                                                  ConstNumFactor(
                                                                   2
                                                                  ) [ConstNumFactor]
                                                                ) [TermNoMulopList]
                                                              ) [TermExpression]
                                                            ) [ExpressionNoAddList]
                                                          ) [ArrayRefList]
                                                        ) [SimpleDesignator]
                                                      ) [SimpleDesignatorClass]
                                                    ) [DesignatorFactorNoParams]
                                                    MulopFactorSingle(
                                                      Divop(
                                                      ) [Divop]
                                                      DesignatorFactorNoParams(
                                                        SimpleDesignatorClass(
                                                          SimpleDesignator(
                                                            DesName(
                                                             niz
                                                            ) [DesName]
                                                            ArrayRefList(
                                                              NoArrayRef(
                                                              ) [NoArrayRef]
                                                              ExpressionNoAddList(
                                                                TermExpression(
                                                                  TermNoMulopList(
                                                                    ConstNumFactor(
                                                                     0
                                                                    ) [ConstNumFactor]
                                                                  ) [TermNoMulopList]
                                                                ) [TermExpression]
                                                              ) [ExpressionNoAddList]
                                                            ) [ArrayRefList]
                                                          ) [SimpleDesignator]
                                                        ) [SimpleDesignatorClass]
                                                      ) [DesignatorFactorNoParams]
                                                    ) [MulopFactorSingle]
                                                  ) [TermMulopList]
                                                ) [TermExpression]
                                              ) [ExpressionNoAddList]
                                            ) [AssignExprClass]
                                          ) [Assign]
                                        ) [DesignatorStment]
                                      ) [MatchedClass]
                                    ) [StatementListClass]
                                    MatchedClass(
                                      PrintNoConst(
                                        ExpressionNoAddList(
                                          TermExpression(
                                            TermNoMulopList(
                                              DesignatorFactorNoParams(
                                                SimpleDesignatorClass(
                                                  SimpleDesignator(
                                                    DesName(
                                                     bodovi
                                                    ) [DesName]
                                                    NoArrayRef(
                                                    ) [NoArrayRef]
                                                  ) [SimpleDesignator]
                                                ) [SimpleDesignatorClass]
                                              ) [DesignatorFactorNoParams]
                                            ) [TermNoMulopList]
                                          ) [TermExpression]
                                        ) [ExpressionNoAddList]
                                      ) [PrintNoConst]
                                    ) [MatchedClass]
                                  ) [StatementListClass]
                                  MatchedClass(
                                    PrintNoConst(
                                      ExpressionNoAddList(
                                        TermExpression(
                                          TermNoMulopList(
                                            DesignatorFactorNoParams(
                                              SimpleDesignatorClass(
                                                SimpleDesignator(
                                                  DesName(
                                                   niz
                                                  ) [DesName]
                                                  ArrayRefList(
                                                    NoArrayRef(
                                                    ) [NoArrayRef]
                                                    ExpressionNoAddList(
                                                      TermExpression(
                                                        TermNoMulopList(
                                                          ConstNumFactor(
                                                           2
                                                          ) [ConstNumFactor]
                                                        ) [TermNoMulopList]
                                                      ) [TermExpression]
                                                    ) [ExpressionNoAddList]
                                                  ) [ArrayRefList]
                                                ) [SimpleDesignator]
                                              ) [SimpleDesignatorClass]
                                            ) [DesignatorFactorNoParams]
                                          ) [TermNoMulopList]
                                        ) [TermExpression]
                                      ) [ExpressionNoAddList]
                                    ) [PrintNoConst]
                                  ) [MatchedClass]
                                ) [StatementListClass]
                                MatchedClass(
                                  DesignatorStment(
                                    Assign(
                                      SimpleDesignatorClass(
                                        SimpleDesignator(
                                          DesName(
                                           nizch
                                          ) [DesName]
                                          NoArrayRef(
                                          ) [NoArrayRef]
                                        ) [SimpleDesignator]
                                      ) [SimpleDesignatorClass]
                                      Assignop(
                                      ) [Assignop]
                                      AssignExprClass(
                                        ExpressionNoAddList(
                                          TermExpression(
                                            TermNoMulopList(
                                              AllocationExpr(
                                                Type(
                                                 char
                                                ) [Type]
                                                ArrayRefListAlloc(
                                                  NoArrayRefAlloc(
                                                  ) [NoArrayRefAlloc]
                                                  ExpressionNoAddList(
                                                    TermExpression(
                                                      TermNoMulopList(
                                                        ConstNumFactor(
                                                         3
                                                        ) [ConstNumFactor]
                                                      ) [TermNoMulopList]
                                                    ) [TermExpression]
                                                  ) [ExpressionNoAddList]
                                                ) [ArrayRefListAlloc]
                                              ) [AllocationExpr]
                                            ) [TermNoMulopList]
                                          ) [TermExpression]
                                        ) [ExpressionNoAddList]
                                      ) [AssignExprClass]
                                    ) [Assign]
                                  ) [DesignatorStment]
                                ) [MatchedClass]
                              ) [StatementListClass]
                              MatchedClass(
                                DesignatorStment(
                                  Assign(
                                    SimpleDesignatorClass(
                                      SimpleDesignator(
                                        DesName(
                                         nizch
                                        ) [DesName]
                                        ArrayRefList(
                                          NoArrayRef(
                                          ) [NoArrayRef]
                                          ExpressionNoAddList(
                                            TermExpression(
                                              TermNoMulopList(
                                                ConstNumFactor(
                                                 0
                                                ) [ConstNumFactor]
                                              ) [TermNoMulopList]
                                            ) [TermExpression]
                                          ) [ExpressionNoAddList]
                                        ) [ArrayRefList]
                                      ) [SimpleDesignator]
                                    ) [SimpleDesignatorClass]
                                    Assignop(
                                    ) [Assignop]
                                    AssignExprClass(
                                      ExpressionNoAddList(
                                        TermExpression(
                                          TermNoMulopList(
                                            ConstCharFactor(
                                             a
                                            ) [ConstCharFactor]
                                          ) [TermNoMulopList]
                                        ) [TermExpression]
                                      ) [ExpressionNoAddList]
                                    ) [AssignExprClass]
                                  ) [Assign]
                                ) [DesignatorStment]
                              ) [MatchedClass]
                            ) [StatementListClass]
                            MatchedClass(
                              DesignatorStment(
                                Assign(
                                  SimpleDesignatorClass(
                                    SimpleDesignator(
                                      DesName(
                                       nizch
                                      ) [DesName]
                                      ArrayRefList(
                                        NoArrayRef(
                                        ) [NoArrayRef]
                                        ExpressionNoAddList(
                                          TermExpression(
                                            TermNoMulopList(
                                              DesignatorFactorNoParams(
                                                SimpleDesignatorClass(
                                                  SimpleDesignator(
                                                    DesName(
                                                     jedan
                                                    ) [DesName]
                                                    NoArrayRef(
                                                    ) [NoArrayRef]
                                                  ) [SimpleDesignator]
                                                ) [SimpleDesignatorClass]
                                              ) [DesignatorFactorNoParams]
                                            ) [TermNoMulopList]
                                          ) [TermExpression]
                                        ) [ExpressionNoAddList]
                                      ) [ArrayRefList]
                                    ) [SimpleDesignator]
                                  ) [SimpleDesignatorClass]
                                  Assignop(
                                  ) [Assignop]
                                  AssignExprClass(
                                    ExpressionNoAddList(
                                      TermExpression(
                                        TermNoMulopList(
                                          ConstCharFactor(
                                           b
                                          ) [ConstCharFactor]
                                        ) [TermNoMulopList]
                                      ) [TermExpression]
                                    ) [ExpressionNoAddList]
                                  ) [AssignExprClass]
                                ) [Assign]
                              ) [DesignatorStment]
                            ) [MatchedClass]
                          ) [StatementListClass]
                          MatchedClass(
                            DesignatorStment(
                              Assign(
                                SimpleDesignatorClass(
                                  SimpleDesignator(
                                    DesName(
                                     nizch
                                    ) [DesName]
                                    ArrayRefList(
                                      NoArrayRef(
                                      ) [NoArrayRef]
                                      ExpressionAddList(
                                        TermExpression(
                                          TermNoMulopList(
                                            DesignatorFactorNoParams(
                                              SimpleDesignatorClass(
                                                SimpleDesignator(
                                                  DesName(
                                                   pet
                                                  ) [DesName]
                                                  NoArrayRef(
                                                  ) [NoArrayRef]
                                                ) [SimpleDesignator]
                                              ) [SimpleDesignatorClass]
                                            ) [DesignatorFactorNoParams]
                                          ) [TermNoMulopList]
                                        ) [TermExpression]
                                        SingleAddExpressionList(
                                          Subop(
                                          ) [Subop]
                                          TermNoMulopList(
                                            ConstNumFactor(
                                             3
                                            ) [ConstNumFactor]
                                          ) [TermNoMulopList]
                                        ) [SingleAddExpressionList]
                                      ) [ExpressionAddList]
                                    ) [ArrayRefList]
                                  ) [SimpleDesignator]
                                ) [SimpleDesignatorClass]
                                Assignop(
                                ) [Assignop]
                                AssignExprClass(
                                  ExpressionNoAddList(
                                    TermExpression(
                                      TermNoMulopList(
                                        ConstCharFactor(
                                         c
                                        ) [ConstCharFactor]
                                      ) [TermNoMulopList]
                                    ) [TermExpression]
                                  ) [ExpressionNoAddList]
                                ) [AssignExprClass]
                              ) [Assign]
                            ) [DesignatorStment]
                          ) [MatchedClass]
                        ) [StatementListClass]
                        MatchedClass(
                          PrintNoConst(
                            ExpressionNoAddList(
                              TermExpression(
                                TermNoMulopList(
                                  DesignatorFactorNoParams(
                                    SimpleDesignatorClass(
                                      SimpleDesignator(
                                        DesName(
                                         nizch
                                        ) [DesName]
                                        ArrayRefList(
                                          NoArrayRef(
                                          ) [NoArrayRef]
                                          ExpressionNoAddList(
                                            TermExpression(
                                              TermNoMulopList(
                                                ConstNumFactor(
                                                 1
                                                ) [ConstNumFactor]
                                              ) [TermNoMulopList]
                                            ) [TermExpression]
                                          ) [ExpressionNoAddList]
                                        ) [ArrayRefList]
                                      ) [SimpleDesignator]
                                    ) [SimpleDesignatorClass]
                                  ) [DesignatorFactorNoParams]
                                ) [TermNoMulopList]
                              ) [TermExpression]
                            ) [ExpressionNoAddList]
                          ) [PrintNoConst]
                        ) [MatchedClass]
                      ) [StatementListClass]
                      MatchedClass(
                        PrintNoConst(
                          ExpressionNoAddList(
                            TermExpression(
                              TermNoMulopList(
                                DesignatorFactorNoParams(
                                  SimpleDesignatorClass(
                                    SimpleDesignator(
                                      DesName(
                                       nizch
                                      ) [DesName]
                                      ArrayRefList(
                                        NoArrayRef(
                                        ) [NoArrayRef]
                                        ExpressionNoAddList(
                                          TermExpression(
                                            TermMulopList(
                                              DesignatorFactorNoParams(
                                                SimpleDesignatorClass(
                                                  SimpleDesignator(
                                                    DesName(
                                                     jedan
                                                    ) [DesName]
                                                    NoArrayRef(
                                                    ) [NoArrayRef]
                                                  ) [SimpleDesignator]
                                                ) [SimpleDesignatorClass]
                                              ) [DesignatorFactorNoParams]
                                              MulopFactorSingle(
                                                Mulop(
                                                ) [Mulop]
                                                ConstNumFactor(
                                                 2
                                                ) [ConstNumFactor]
                                              ) [MulopFactorSingle]
                                            ) [TermMulopList]
                                          ) [TermExpression]
                                        ) [ExpressionNoAddList]
                                      ) [ArrayRefList]
                                    ) [SimpleDesignator]
                                  ) [SimpleDesignatorClass]
                                ) [DesignatorFactorNoParams]
                              ) [TermNoMulopList]
                            ) [TermExpression]
                          ) [ExpressionNoAddList]
                        ) [PrintNoConst]
                      ) [MatchedClass]
                    ) [StatementListClass]
                    MatchedClass(
                      DesignatorStment(
                        Assign(
                          SimpleDesignatorClass(
                            SimpleDesignator(
                              DesName(
                               bodovi
                              ) [DesName]
                              NoArrayRef(
                              ) [NoArrayRef]
                            ) [SimpleDesignator]
                          ) [SimpleDesignatorClass]
                          Assignop(
                          ) [Assignop]
                          AssignExprClass(
                            ExpressionAddList(
                              TermExpression(
                                TermNoMulopList(
                                  DesignatorFactorNoParams(
                                    SimpleDesignatorClass(
                                      SimpleDesignator(
                                        DesName(
                                         bodovi
                                        ) [DesName]
                                        NoArrayRef(
                                        ) [NoArrayRef]
                                      ) [SimpleDesignator]
                                    ) [SimpleDesignatorClass]
                                  ) [DesignatorFactorNoParams]
                                ) [TermNoMulopList]
                              ) [TermExpression]
                              AddExpressionList(
                                SingleAddExpressionList(
                                  Addop(
                                  ) [Addop]
                                  TermMulopList(
                                    ParenExpression(
                                      ExpressionAddList(
                                        TermExpression(
                                          TermMulopList(
                                            DesignatorFactorNoParams(
                                              SimpleDesignatorClass(
                                                SimpleDesignator(
                                                  DesName(
                                                   pet
                                                  ) [DesName]
                                                  NoArrayRef(
                                                  ) [NoArrayRef]
                                                ) [SimpleDesignator]
                                              ) [SimpleDesignatorClass]
                                            ) [DesignatorFactorNoParams]
                                            MulopFactorSingle(
                                              Mulop(
                                              ) [Mulop]
                                              DesignatorFactorNoParams(
                                                SimpleDesignatorClass(
                                                  SimpleDesignator(
                                                    DesName(
                                                     jedan
                                                    ) [DesName]
                                                    NoArrayRef(
                                                    ) [NoArrayRef]
                                                  ) [SimpleDesignator]
                                                ) [SimpleDesignatorClass]
                                              ) [DesignatorFactorNoParams]
                                            ) [MulopFactorSingle]
                                          ) [TermMulopList]
                                        ) [TermExpression]
                                        SingleAddExpressionList(
                                          Subop(
                                          ) [Subop]
                                          TermNoMulopList(
                                            ConstNumFactor(
                                             1
                                            ) [ConstNumFactor]
                                          ) [TermNoMulopList]
                                        ) [SingleAddExpressionList]
                                      ) [ExpressionAddList]
                                    ) [ParenExpression]
                                    MulopFactorSingle(
                                      Mulop(
                                      ) [Mulop]
                                      DesignatorFactorNoParams(
                                        SimpleDesignatorClass(
                                          SimpleDesignator(
                                            DesName(
                                             bodovi
                                            ) [DesName]
                                            NoArrayRef(
                                            ) [NoArrayRef]
                                          ) [SimpleDesignator]
                                        ) [SimpleDesignatorClass]
                                      ) [DesignatorFactorNoParams]
                                    ) [MulopFactorSingle]
                                  ) [TermMulopList]
                                ) [SingleAddExpressionList]
                                Subop(
                                ) [Subop]
                                TermNoMulopList(
                                  ParenExpression(
                                    ExpressionAddList(
                                      TermExpression(
                                        TermMulopList(
                                          ConstNumFactor(
                                           3
                                          ) [ConstNumFactor]
                                          MulopFactorSingle(
                                            Moduop(
                                            ) [Moduop]
                                            ConstNumFactor(
                                             2
                                            ) [ConstNumFactor]
                                          ) [MulopFactorSingle]
                                        ) [TermMulopList]
                                      ) [TermExpression]
                                      AddExpressionList(
                                        SingleAddExpressionList(
                                          Addop(
                                          ) [Addop]
                                          TermMulopList(
                                            ConstNumFactor(
                                             3
                                            ) [ConstNumFactor]
                                            MulopFactorSingle(
                                              Mulop(
                                              ) [Mulop]
                                              ConstNumFactor(
                                               2
                                              ) [ConstNumFactor]
                                            ) [MulopFactorSingle]
                                          ) [TermMulopList]
                                        ) [SingleAddExpressionList]
                                        Subop(
                                        ) [Subop]
                                        TermNoMulopList(
                                          ConstNumFactor(
                                           3
                                          ) [ConstNumFactor]
                                        ) [TermNoMulopList]
                                      ) [AddExpressionList]
                                    ) [ExpressionAddList]
                                  ) [ParenExpression]
                                ) [TermNoMulopList]
                              ) [AddExpressionList]
                            ) [ExpressionAddList]
                          ) [AssignExprClass]
                        ) [Assign]
                      ) [DesignatorStment]
                    ) [MatchedClass]
                  ) [StatementListClass]
                  MatchedClass(
                    PrintNoConst(
                      ExpressionNoAddList(
                        TermExpression(
                          TermNoMulopList(
                            DesignatorFactorNoParams(
                              SimpleDesignatorClass(
                                SimpleDesignator(
                                  DesName(
                                   bodovi
                                  ) [DesName]
                                  NoArrayRef(
                                  ) [NoArrayRef]
                                ) [SimpleDesignator]
                              ) [SimpleDesignatorClass]
                            ) [DesignatorFactorNoParams]
                          ) [TermNoMulopList]
                        ) [TermExpression]
                      ) [ExpressionNoAddList]
                    ) [PrintNoConst]
                  ) [MatchedClass]
                ) [StatementListClass]
                MatchedClass(
                  DesignatorStment(
                    Assign(
                      SimpleDesignatorClass(
                        SimpleDesignator(
                          DesName(
                           bodovi
                          ) [DesName]
                          NoArrayRef(
                          ) [NoArrayRef]
                        ) [SimpleDesignator]
                      ) [SimpleDesignatorClass]
                      Assignop(
                      ) [Assignop]
                      AssignExprClass(
                        ExpressionNoAddList(
                          TermExpression(
                            TermNoMulopList(
                              ConstNumFactor(
                               13
                              ) [ConstNumFactor]
                            ) [TermNoMulopList]
                          ) [TermExpression]
                        ) [ExpressionNoAddList]
                      ) [AssignExprClass]
                    ) [Assign]
                  ) [DesignatorStment]
                ) [MatchedClass]
              ) [StatementListClass]
              MatchedClass(
                PrintNoConst(
                  ExpressionNoAddList(
                    TermExpression(
                      TermNoMulopList(
                        DesignatorFactorNoParams(
                          SimpleDesignatorClass(
                            SimpleDesignator(
                              DesName(
                               bodovi
                              ) [DesName]
                              NoArrayRef(
                              ) [NoArrayRef]
                            ) [SimpleDesignator]
                          ) [SimpleDesignatorClass]
                        ) [DesignatorFactorNoParams]
                      ) [TermNoMulopList]
                    ) [TermExpression]
                  ) [ExpressionNoAddList]
                ) [PrintNoConst]
              ) [MatchedClass]
            ) [StatementListClass]
          ) [MethodDefinition]
        ) [MethodDeclVars]
      ) [MethodDeclaration]
    ) [SingleMethodDecl]
  ) [ProgramMethodDeclarations]
) [Program]
INFO  19:41:21,166 - =================SEMANTICKA OBRADA=================
INFO  19:41:21,167 - Registrovan program sa imenom test301 na liniji 3
INFO  19:41:21,167 - Deklarisana promenljiva niz na liniji 9
INFO  19:41:21,167 - Deklarisana promenljiva nizch na liniji 10
INFO  19:41:21,167 - Obradjuje se funkcija main na liniji 13
INFO  19:41:21,167 - Deklarisana promenljiva bodovi na liniji 14
INFO  19:41:21,167 - Deklarisana promenljiva bt na liniji 15
INFO  19:41:21,168 - Pretraga na 17(bodovi), nadjeno Var bodovi: int, 0, 1 
INFO  19:41:21,169 - Pretraga na 18(bodovi), nadjeno Var bodovi: int, 0, 1 
INFO  19:41:21,169 - Pretraga na 19(bodovi), nadjeno Var bodovi: int, 0, 1 
INFO  19:41:21,169 - Pretraga na 19(bodovi), nadjeno Var bodovi: int, 0, 1 
INFO  19:41:21,169 - Pretraga na 19(jedan), nadjeno Con jedan: int, 1, 0 
INFO  19:41:21,169 - Pretraga na 20(bodovi), nadjeno Var bodovi: int, 0, 1 
INFO  19:41:21,169 - Pretraga na 20(bodovi), nadjeno Var bodovi: int, 0, 1 
INFO  19:41:21,169 - Pretraga na 20(pet), nadjeno Con pet: int, 5, 0 
INFO  19:41:21,169 - Pretraga na 21(bodovi), nadjeno Var bodovi: int, 0, 1 
INFO  19:41:21,170 - Pretraga na 22(bodovi), nadjeno Var bodovi: int, 0, 1 
INFO  19:41:21,170 - Pretraga na 25(niz), nadjeno Var niz: Arr of int, 0, 0 
INFO  19:41:21,170 - Pretraga na 26(niz), nadjeno Var niz: Arr of int, 0, 0 
INFO  19:41:21,170 - Pretraga na 26(nula), nadjeno Con nula: int, 0, 0 
INFO  19:41:21,170 - Pretraga na 26(jedan), nadjeno Con jedan: int, 1, 0 
INFO  19:41:21,170 - Pretraga na 27(niz), nadjeno Var niz: Arr of int, 0, 0 
INFO  19:41:21,170 - Pretraga na 28(niz), nadjeno Var niz: Arr of int, 0, 0 
INFO  19:41:21,170 - Pretraga na 28(niz), nadjeno Var niz: Arr of int, 0, 0 
INFO  19:41:21,170 - Pretraga na 28(jedan), nadjeno Con jedan: int, 1, 0 
INFO  19:41:21,170 - Pretraga na 28(niz), nadjeno Var niz: Arr of int, 0, 0 
INFO  19:41:21,171 - Pretraga na 28(niz), nadjeno Var niz: Arr of int, 0, 0 
INFO  19:41:21,171 - Pretraga na 29(bodovi), nadjeno Var bodovi: int, 0, 1 
INFO  19:41:21,171 - Pretraga na 29(niz), nadjeno Var niz: Arr of int, 0, 0 
INFO  19:41:21,171 - Pretraga na 29(niz), nadjeno Var niz: Arr of int, 0, 0 
INFO  19:41:21,171 - Pretraga na 30(bodovi), nadjeno Var bodovi: int, 0, 1 
INFO  19:41:21,171 - Pretraga na 31(niz), nadjeno Var niz: Arr of int, 0, 0 
INFO  19:41:21,171 - Pretraga na 34(nizch), nadjeno Var nizch: Arr of char, 1, 0 
INFO  19:41:21,171 - Pretraga na 35(nizch), nadjeno Var nizch: Arr of char, 1, 0 
INFO  19:41:21,171 - Pretraga na 36(nizch), nadjeno Var nizch: Arr of char, 1, 0 
INFO  19:41:21,171 - Pretraga na 36(jedan), nadjeno Con jedan: int, 1, 0 
INFO  19:41:21,172 - Pretraga na 37(nizch), nadjeno Var nizch: Arr of char, 1, 0 
INFO  19:41:21,172 - Pretraga na 37(pet), nadjeno Con pet: int, 5, 0 
INFO  19:41:21,172 - Pretraga na 38(nizch), nadjeno Var nizch: Arr of char, 1, 0 
INFO  19:41:21,172 - Pretraga na 39(nizch), nadjeno Var nizch: Arr of char, 1, 0 
INFO  19:41:21,172 - Pretraga na 39(jedan), nadjeno Con jedan: int, 1, 0 
INFO  19:41:21,172 - Pretraga na 42(bodovi), nadjeno Var bodovi: int, 0, 1 
INFO  19:41:21,172 - Pretraga na 42(bodovi), nadjeno Var bodovi: int, 0, 1 
INFO  19:41:21,172 - Pretraga na 42(pet), nadjeno Con pet: int, 5, 0 
INFO  19:41:21,172 - Pretraga na 42(jedan), nadjeno Con jedan: int, 1, 0 
INFO  19:41:21,172 - Pretraga na 42(bodovi), nadjeno Var bodovi: int, 0, 1 
INFO  19:41:21,172 - Pretraga na 43(bodovi), nadjeno Var bodovi: int, 0, 1 
INFO  19:41:21,172 - Pretraga na 46(bodovi), nadjeno Var bodovi: int, 0, 1 
INFO  19:41:21,173 - Pretraga na 47(bodovi), nadjeno Var bodovi: int, 0, 1 
INFO  19:41:21,173 - Zavrsena obrada funkcije main na liniji 13
INFO  19:41:21,173 - Zavrsena semanticka analiza!
INFO  19:41:21,173 - =================SINTAKSNA ANALIZA=================
INFO  19:41:21,173 - 0 records in the program
INFO  19:41:21,173 - 1 methods in the program
INFO  19:41:21,173 - 2 global variables
INFO  19:41:21,173 - 3 global constants
INFO  19:41:21,173 - 2 global arrays
INFO  19:41:21,173 - 2 local variables in main
INFO  19:41:21,173 - 23 statements in main
INFO  19:41:21,173 - 0 function calls in main
INFO  19:41:21,185 - Parsiranje uspesno zavrseno!
